Engine/Binaries/Win64/UE4Game.exe	2021-06-17T13:08:04.763Z
Engine/Binaries/Win64/turbojpeg.dll	2021-06-17T13:07:15.038Z
Engine/Extras/Redist/en-us/UE4PrereqSetup_x64.exe	2021-06-17T13:11:30.261Z
Engine/Binaries/ThirdParty/Oculus/OVRPlugin/OVRPlugin/Win64/OVRPlugin.dll	2021-06-17T13:05:49.732Z
Engine/Binaries/ThirdParty/DbgHelp/dbghelp.dll	2021-06-17T13:05:39.858Z
Engine/Binaries/ThirdParty/PhysX3/Win64/VS2015/PxFoundationPROFILE_x64.dll	2021-06-17T13:06:06.742Z
Engine/Binaries/ThirdParty/PhysX3/Win64/VS2015/PxPvdSDKPROFILE_x64.dll	2021-06-17T13:06:06.757Z
Engine/Binaries/ThirdParty/PhysX3/Win64/VS2015/PhysX3PROFILE_x64.dll	2021-06-17T13:06:06.122Z
Engine/Binaries/ThirdParty/PhysX3/Win64/VS2015/PhysX3CookingPROFILE_x64.dll	2021-06-17T13:06:06.107Z
Engine/Binaries/ThirdParty/PhysX3/Win64/VS2015/PhysX3CommonPROFILE_x64.dll	2021-06-17T13:06:06.061Z
Engine/Binaries/ThirdParty/PhysX3/Win64/VS2015/APEX_ClothingPROFILE_x64.dll	2021-06-17T13:06:01.533Z
Engine/Binaries/ThirdParty/PhysX3/Win64/VS2015/APEX_LegacyPROFILE_x64.dll	2021-06-17T13:06:03.935Z
Engine/Binaries/ThirdParty/PhysX3/Win64/VS2015/ApexFrameworkPROFILE_x64.dll	2021-06-17T13:06:04.392Z
Engine/Binaries/ThirdParty/PhysX3/Win64/VS2015/NvClothPROFILE_x64.dll	2021-06-17T13:06:04.462Z
Engine/Binaries/ThirdParty/Ogg/Win64/VS2015/libogg_64.dll	2021-06-17T13:05:49.737Z
Engine/Binaries/ThirdParty/Vorbis/Win64/VS2015/libvorbis_64.dll	2021-06-17T13:06:37.930Z
Engine/Binaries/ThirdParty/Vorbis/Win64/VS2015/libvorbisfile_64.dll	2021-06-17T13:06:37.931Z
Engine/Binaries/ThirdParty/NVIDIA/NVaftermath/Win64/GFSDK_Aftermath_Lib.x64.dll	2021-06-17T13:05:48.819Z
Engine/Binaries/ThirdParty/OpenVR/OpenVRv1_5_17/Win64/openvr_api.dll	2021-06-17T13:05:50.020Z
Engine/Binaries/ThirdParty/Windows/WinPixEventRuntime/x64/WinPixEventRuntime.dll	2021-06-17T13:06:38.390Z
Engine/Binaries/ThirdParty/Windows/XAudio2_9/x64/xaudio2_9redist.dll	2021-06-17T13:06:39.208Z
MyUE4SkillboxProject.exe	2021-09-01T16:01:25.396Z
